0 info it worked if it ends with ok
1 verbose cli [ 'D:\\Software\\Nodejs\\\\node.exe',
1 verbose cli   'D:\\Software\\Nodejs\\node_modules\\npm\\bin\\npm-cli.js',
1 verbose cli   'install',
1 verbose cli   'ngPopover',
1 verbose cli   '--save' ]
2 info using npm@1.4.28
3 info using node@v0.10.32
4 verbose node symlink D:\Software\Nodejs\\node.exe
5 verbose readDependencies using package.json deps
6 verbose cache add [ 'ngPopover', null ]
7 verbose cache add name=undefined spec="ngPopover" args=["ngPopover",null]
8 verbose parsed url { protocol: null,
8 verbose parsed url   slashes: null,
8 verbose parsed url   auth: null,
8 verbose parsed url   host: null,
8 verbose parsed url   port: null,
8 verbose parsed url   hostname: null,
8 verbose parsed url   hash: null,
8 verbose parsed url   search: null,
8 verbose parsed url   query: null,
8 verbose parsed url   pathname: 'ngPopover',
8 verbose parsed url   path: 'ngPopover',
8 verbose parsed url   href: 'ngPopover' }
9 silly lockFile 79db86a5-ngPopover ngPopover
10 verbose lock ngPopover C:\Users\Spy\AppData\Roaming\npm-cache\79db86a5-ngPopover.lock
11 silly lockFile 79db86a5-ngPopover ngPopover
12 silly lockFile 79db86a5-ngPopover ngPopover
13 verbose addNamed [ 'ngPopover', '' ]
14 verbose addNamed [ null, '*' ]
15 silly lockFile 34792d0f-ngPopover ngPopover@
16 verbose lock ngPopover@ C:\Users\Spy\AppData\Roaming\npm-cache\34792d0f-ngPopover.lock
17 silly addNameRange { name: 'ngPopover', range: '*', hasData: false }
18 verbose request where is /ngPopover
19 verbose request registry https://registry.npmjs.org/
20 verbose request id 141894ff957c0a93
21 verbose url raw /ngPopover
22 verbose url resolving [ 'https://registry.npmjs.org/', './ngPopover' ]
23 verbose url resolved https://registry.npmjs.org/ngPopover
24 verbose request where is https://registry.npmjs.org/ngPopover
25 info trying registry request attempt 1 at 20:45:53
26 http GET https://registry.npmjs.org/ngPopover
27 http 404 https://registry.npmjs.org/ngPopover
28 verbose headers { date: 'Sat, 11 Oct 2014 12:45:56 GMT',
28 verbose headers   server: 'CouchDB/1.5.0 (Erlang OTP/R16B03)',
28 verbose headers   'content-type': 'application/json',
28 verbose headers   'cache-control': 'max-age=0',
28 verbose headers   'content-length': '52',
28 verbose headers   'accept-ranges': 'bytes',
28 verbose headers   via: '1.1 varnish',
28 verbose headers   age: '0',
28 verbose headers   'x-served-by': 'cache-ty66-TYO',
28 verbose headers   'x-cache': 'MISS',
28 verbose headers   'x-cache-hits': '0',
28 verbose headers   'x-timer': 'S1413031555.857070,VS0,VE173',
28 verbose headers   'keep-alive': 'timeout=10, max=50',
28 verbose headers   connection: 'Keep-Alive' }
29 silly registry.get cb [ 404,
29 silly registry.get   { date: 'Sat, 11 Oct 2014 12:45:56 GMT',
29 silly registry.get     server: 'CouchDB/1.5.0 (Erlang OTP/R16B03)',
29 silly registry.get     'content-type': 'application/json',
29 silly registry.get     'cache-control': 'max-age=0',
29 silly registry.get     'content-length': '52',
29 silly registry.get     'accept-ranges': 'bytes',
29 silly registry.get     via: '1.1 varnish',
29 silly registry.get     age: '0',
29 silly registry.get     'x-served-by': 'cache-ty66-TYO',
29 silly registry.get     'x-cache': 'MISS',
29 silly registry.get     'x-cache-hits': '0',
29 silly registry.get     'x-timer': 'S1413031555.857070,VS0,VE173',
29 silly registry.get     'keep-alive': 'timeout=10, max=50',
29 silly registry.get     connection: 'Keep-Alive' } ]
30 silly lockFile 34792d0f-ngPopover ngPopover@
31 silly lockFile 34792d0f-ngPopover ngPopover@
32 error 404 404 Not Found: ngPopover
32 error 404
32 error 404 'ngPopover' is not in the npm registry.
32 error 404 You should bug the author to publish it
32 error 404 It was specified as a dependency of 'Spy'
32 error 404
32 error 404 Note that you can also install from a
32 error 404 tarball, folder, or http url, or git url.
33 error System Windows_NT 6.1.7601
34 error command "D:\\Software\\Nodejs\\\\node.exe" "D:\\Software\\Nodejs\\node_modules\\npm\\bin\\npm-cli.js" "install" "ngPopover" "--save"
35 error cwd E:\Develop\Spy
36 error node -v v0.10.32
37 error npm -v 1.4.28
38 error code E404
39 verbose exit [ 1, true ]
